%YAML 1.1
%TAG !u! tag:unity3d.com,2011:
--- !u!1 &886883585135533465
GameObject:
  m_ObjectHideFlags: 0
  m_CorrespondingSourceObject: {fileID: 0}
  m_PrefabInstance: {fileID: 0}
  m_PrefabAsset: {fileID: 0}
  serializedVersion: 6
  m_Component:
  - component: {fileID: 5008085321436170726}
  - component: {fileID: 2848082713426370911}
  m_Layer: 0
  m_Name: TilePalette
  m_TagString: Untagged
  m_Icon: {fileID: 0}
  m_NavMeshLayer: 0
  m_StaticEditorFlags: 0
  m_IsActive: 1
--- !u!4 &5008085321436170726
Transform:
  m_ObjectHideFlags: 0
  m_CorrespondingSourceObject: {fileID: 0}
  m_PrefabInstance: {fileID: 0}
  m_PrefabAsset: {fileID: 0}
  m_GameObject: {fileID: 886883585135533465}
  m_LocalRotation: {x: 0, y: 0, z: 0, w: 1}
  m_LocalPosition: {x: 0, y: 0, z: 0}
  m_LocalScale: {x: 1, y: 1, z: 1}
  m_ConstrainProportionsScale: 0
  m_Children:
  - {fileID: 4516626249420154487}
  m_Father: {fileID: 0}
  m_RootOrder: 0
  m_LocalEulerAnglesHint: {x: 0, y: 0, z: 0}
--- !u!156049354 &2848082713426370911
Grid:
  m_ObjectHideFlags: 0
  m_CorrespondingSourceObject: {fileID: 0}
  m_PrefabInstance: {fileID: 0}
  m_PrefabAsset: {fileID: 0}
  m_GameObject: {fileID: 886883585135533465}
  m_Enabled: 1
  m_CellSize: {x: 1, y: 1, z: 0}
  m_CellGap: {x: 0, y: 0, z: 0}
  m_CellLayout: 0
  m_CellSwizzle: 0
--- !u!1 &2245811403780637096
GameObject:
  m_ObjectHideFlags: 0
  m_CorrespondingSourceObject: {fileID: 0}
  m_PrefabInstance: {fileID: 0}
  m_PrefabAsset: {fileID: 0}
  serializedVersion: 6
  m_Component:
  - component: {fileID: 4516626249420154487}
  - component: {fileID: 92447696897192368}
  - component: {fileID: 649606624066536833}
  m_Layer: 0
  m_Name: Layer1
  m_TagString: Untagged
  m_Icon: {fileID: 0}
  m_NavMeshLayer: 0
  m_StaticEditorFlags: 0
  m_IsActive: 1
--- !u!4 &4516626249420154487
Transform:
  m_ObjectHideFlags: 0
  m_CorrespondingSourceObject: {fileID: 0}
  m_PrefabInstance: {fileID: 0}
  m_PrefabAsset: {fileID: 0}
  m_GameObject: {fileID: 2245811403780637096}
  m_LocalRotation: {x: -0, y: -0, z: -0, w: 1}
  m_LocalPosition: {x: 0, y: 0, z: 0}
  m_LocalScale: {x: 1, y: 1, z: 1}
  m_ConstrainProportionsScale: 0
  m_Children: []
  m_Father: {fileID: 5008085321436170726}
  m_RootOrder: 0
  m_LocalEulerAnglesHint: {x: 0, y: 0, z: 0}
--- !u!1839735485 &92447696897192368
Tilemap:
  m_ObjectHideFlags: 0
  m_CorrespondingSourceObject: {fileID: 0}
  m_PrefabInstance: {fileID: 0}
  m_PrefabAsset: {fileID: 0}
  m_GameObject: {fileID: 2245811403780637096}
  m_Enabled: 1
  m_Tiles:
  - first: {x: -3, y: -10, z: 0}
    second:
      serializedVersion: 2
      m_TileIndex: 133
      m_TileSpriteIndex: 133
      m_TileMatrixIndex: 0
      m_TileColorIndex: 0
      m_TileObjectToInstantiateIndex: 65535
      dummyAlignment: 0
      m_AllTileFlags: 1073741825
  - first: {x: -2, y: -10, z: 0}
    second:
      serializedVersion: 2
      m_TileIndex: 134
      m_TileSpriteIndex: 134
      m_TileMatrixIndex: 0
      m_TileColorIndex: 0
      m_TileObjectToInstantiateIndex: 65535
      dummyAlignment: 0
      m_AllTileFlags: 1073741825
  - first: {x: -1, y: -10, z: 0}
    second:
      serializedVersion: 2
      m_TileIndex: 135
      m_TileSpriteIndex: 135
      m_TileMatrixIndex: 0
      m_TileColorIndex: 0
      m_TileObjectToInstantiateIndex: 65535
      dummyAlignment: 0
      m_AllTileFlags: 1073741825
  - first: {x: 0, y: -10, z: 0}
    second:
      serializedVersion: 2
      m_TileIndex: 136
      m_TileSpriteIndex: 136
      m_TileMatrixIndex: 0
      m_TileColorIndex: 0
      m_TileObjectToInstantiateIndex: 65535
      dummyAlignment: 0
      m_AllTileFlags: 1073741825
  - first: {x: 1, y: -10, z: 0}
    second:
      serializedVersion: 2
      m_TileIndex: 137
      m_TileSpriteIndex: 137
      m_TileMatrixIndex: 0
      m_TileColorIndex: 0
      m_TileObjectToInstantiateIndex: 65535
      dummyAlignment: 0
      m_AllTileFlags: 1073741825
  - first: {x: 2, y: -10, z: 0}
    second:
      serializedVersion: 2
      m_TileIndex: 138
      m_TileSpriteIndex: 138
      m_TileMatrixIndex: 0
      m_TileColorIndex: 0
      m_TileObjectToInstantiateIndex: 65535
      dummyAlignment: 0
      m_AllTileFlags: 1073741825
  - first: {x: 3, y: -10, z: 0}
    second:
      serializedVersion: 2
      m_TileIndex: 139
      m_TileSpriteIndex: 139
      m_TileMatrixIndex: 0
      m_TileColorIndex: 0
      m_TileObjectToInstantiateIndex: 65535
      dummyAlignment: 0
      m_AllTileFlags: 1073741825
  - first: {x: 4, y: -10, z: 0}
    second:
      serializedVersion: 2
      m_TileIndex: 140
      m_TileSpriteIndex: 140
      m_TileMatrixIndex: 0
      m_TileColorIndex: 0
      m_TileObjectToInstantiateIndex: 65535
      dummyAlignment: 0
      m_AllTileFlags: 1073741825
  - first: {x: 5, y: -10, z: 0}
    second:
      serializedVersion: 2
      m_TileIndex: 141
      m_TileSpriteIndex: 141
      m_TileMatrixIndex: 0
      m_TileColorIndex: 0
      m_TileObjectToInstantiateIndex: 65535
      dummyAlignment: 0
      m_AllTileFlags: 1073741825
  - first: {x: 6, y: -10, z: 0}
    second:
      serializedVersion: 2
      m_TileIndex: 142
      m_TileSpriteIndex: 142
      m_TileMatrixIndex: 0
      m_TileColorIndex: 0
      m_TileObjectToInstantiateIndex: 65535
      dummyAlignment: 0
      m_AllTileFlags: 1073741825
  - first: {x: 7, y: -10, z: 0}
    second:
      serializedVersion: 2
      m_TileIndex: 143
      m_TileSpriteIndex: 143
      m_TileMatrixIndex: 0
      m_TileColorIndex: 0
      m_TileObjectToInstantiateIndex: 65535
      dummyAlignment: 0
      m_AllTileFlags: 1073741825
  - first: {x: 8, y: -10, z: 0}
    second:
      serializedVersion: 2
      m_TileIndex: 144
      m_TileSpriteIndex: 144
      m_TileMatrixIndex: 0
      m_TileColorIndex: 0
      m_TileObjectToInstantiateIndex: 65535
      dummyAlignment: 0
      m_AllTileFlags: 1073741825
  - first: {x: -3, y: -9, z: 0}
    second:
      serializedVersion: 2
      m_TileIndex: 121
      m_TileSpriteIndex: 121
      m_TileMatrixIndex: 0
      m_TileColorIndex: 0
      m_TileObjectToInstantiateIndex: 65535
      dummyAlignment: 0
      m_AllTileFlags: 1073741825
  - first: {x: -2, y: -9, z: 0}
    second:
      serializedVersion: 2
      m_TileIndex: 122
      m_TileSpriteIndex: 122
      m_TileMatrixIndex: 0
      m_TileColorIndex: 0
      m_TileObjectToInstantiateIndex: 65535
      dummyAlignment: 0
      m_AllTileFlags: 1073741825
  - first: {x: -1, y: -9, z: 0}
    second:
      serializedVersion: 2
      m_TileIndex: 123
      m_TileSpriteIndex: 123
      m_TileMatrixIndex: 0
      m_TileColorIndex: 0
      m_TileObjectToInstantiateIndex: 65535
      dummyAlignment: 0
      m_AllTileFlags: 1073741825
  - first: {x: 0, y: -9, z: 0}
    second:
      serializedVersion: 2
      m_TileIndex: 124
      m_TileSpriteIndex: 124
      m_TileMatrixIndex: 0
      m_TileColorIndex: 0
      m_TileObjectToInstantiateIndex: 65535
      dummyAlignment: 0
      m_AllTileFlags: 1073741825
  - first: {x: 1, y: -9, z: 0}
    second:
      serializedVersion: 2
      m_TileIndex: 125
      m_TileSpriteIndex: 125
      m_TileMatrixIndex: 0
      m_TileColorIndex: 0
      m_TileObjectToInstantiateIndex: 65535
      dummyAlignment: 0
      m_AllTileFlags: 1073741825
  - first: {x: 2, y: -9, z: 0}
    second:
      serializedVersion: 2
      m_TileIndex: 126
      m_TileSpriteIndex: 126
      m_TileMatrixIndex: 0
      m_TileColorIndex: 0
      m_TileObjectToInstantiateIndex: 65535
      dummyAlignment: 0
      m_AllTileFlags: 1073741825
  - first: {x: 3, y: -9, z: 0}
    second:
      serializedVersion: 2
      m_TileIndex: 127
      m_TileSpriteIndex: 127
      m_TileMatrixIndex: 0
      m_TileColorIndex: 0
      m_TileObjectToInstantiateIndex: 65535
      dummyAlignment: 0
      m_AllTileFlags: 1073741825
  - first: {x: 4, y: -9, z: 0}
    second:
      serializedVersion: 2
      m_TileIndex: 128
      m_TileSpriteIndex: 128
      m_TileMatrixIndex: 0
      m_TileColorIndex: 0
      m_TileObjectToInstantiateIndex: 65535
      dummyAlignment: 0
      m_AllTileFlags: 1073741825
  - first: {x: 5, y: -9, z: 0}
    second:
      serializedVersion: 2
      m_TileIndex: 129
      m_TileSpriteIndex: 129
      m_TileMatrixIndex: 0
      m_TileColorIndex: 0
      m_TileObjectToInstantiateIndex: 65535
      dummyAlignment: 0
      m_AllTileFlags: 1073741825
  - first: {x: 6, y: -9, z: 0}
    second:
      serializedVersion: 2
      m_TileIndex: 130
      m_TileSpriteIndex: 130
      m_TileMatrixIndex: 0
      m_TileColorIndex: 0
      m_TileObjectToInstantiateIndex: 65535
      dummyAlignment: 0
      m_AllTileFlags: 1073741825
  - first: {x: 7, y: -9, z: 0}
    second:
      serializedVersion: 2
      m_TileIndex: 131
      m_TileSpriteIndex: 131
      m_TileMatrixIndex: 0
      m_TileColorIndex: 0
      m_TileObjectToInstantiateIndex: 65535
      dummyAlignment: 0
      m_AllTileFlags: 1073741825
  - first: {x: 8, y: -9, z: 0}
    second:
      serializedVersion: 2
      m_TileIndex: 132
      m_TileSpriteIndex: 132
      m_TileMatrixIndex: 0
      m_TileColorIndex: 0
      m_TileObjectToInstantiateIndex: 65535
      dummyAlignment: 0
      m_AllTileFlags: 1073741825
  - first: {x: -3, y: -8, z: 0}
    second:
      serializedVersion: 2
      m_TileIndex: 109
      m_TileSpriteIndex: 109
      m_TileMatrixIndex: 0
      m_TileColorIndex: 0
      m_TileObjectToInstantiateIndex: 65535
      dummyAlignment: 0
      m_AllTileFlags: 1073741825
  - first: {x: -2, y: -8, z: 0}
    second:
      serializedVersion: 2
      m_TileIndex: 110
      m_TileSpriteIndex: 110
      m_TileMatrixIndex: 0
      m_TileColorIndex: 0
      m_TileObjectToInstantiateIndex: 65535
      dummyAlignment: 0
      m_AllTileFlags: 1073741825
  - first: {x: -1, y: -8, z: 0}
    second:
      serializedVersion: 2
      m_TileIndex: 111
      m_TileSpriteIndex: 111
      m_TileMatrixIndex: 0
      m_TileColorIndex: 0
      m_TileObjectToInstantiateIndex: 65535
      dummyAlignment: 0
      m_AllTileFlags: 1073741825
  - first: {x: 0, y: -8, z: 0}
    second:
      serializedVersion: 2
      m_TileIndex: 112
      m_TileSpriteIndex: 112
      m_TileMatrixIndex: 0
      m_TileColorIndex: 0
      m_TileObjectToInstantiateIndex: 65535
      dummyAlignment: 0
      m_AllTileFlags: 1073741825
  - first: {x: 1, y: -8, z: 0}
    second:
      serializedVersion: 2
      m_TileIndex: 113
      m_TileSpriteIndex: 113
      m_TileMatrixIndex: 0
      m_TileColorIndex: 0
      m_TileObjectToInstantiateIndex: 65535
      dummyAlignment: 0
      m_AllTileFlags: 1073741825
  - first: {x: 2, y: -8, z: 0}
    second:
      serializedVersion: 2
      m_TileIndex: 114
      m_TileSpriteIndex: 114
      m_TileMatrixIndex: 0
      m_TileColorIndex: 0
      m_TileObjectToInstantiateIndex: 65535
      dummyAlignment: 0
      m_AllTileFlags: 1073741825
  - first: {x: 3, y: -8, z: 0}
    second:
      serializedVersion: 2
      m_TileIndex: 115
      m_TileSpriteIndex: 115
      m_TileMatrixIndex: 0
      m_TileColorIndex: 0
      m_TileObjectToInstantiateIndex: 65535
      dummyAlignment: 0
      m_AllTileFlags: 1073741825
  - first: {x: 4, y: -8, z: 0}
    second:
      serializedVersion: 2
      m_TileIndex: 116
      m_TileSpriteIndex: 116
      m_TileMatrixIndex: 0
      m_TileColorIndex: 0
      m_TileObjectToInstantiateIndex: 65535
      dummyAlignment: 0
      m_AllTileFlags: 1073741825
  - first: {x: 5, y: -8, z: 0}
    second:
      serializedVersion: 2
      m_TileIndex: 117
      m_TileSpriteIndex: 117
      m_TileMatrixIndex: 0
      m_TileColorIndex: 0
      m_TileObjectToInstantiateIndex: 65535
      dummyAlignment: 0
      m_AllTileFlags: 1073741825
  - first: {x: 6, y: -8, z: 0}
    second:
      serializedVersion: 2
      m_TileIndex: 118
      m_TileSpriteIndex: 118
      m_TileMatrixIndex: 0
      m_TileColorIndex: 0
      m_TileObjectToInstantiateIndex: 65535
      dummyAlignment: 0
      m_AllTileFlags: 1073741825
  - first: {x: 7, y: -8, z: 0}
    second:
      serializedVersion: 2
      m_TileIndex: 119
      m_TileSpriteIndex: 119
      m_TileMatrixIndex: 0
      m_TileColorIndex: 0
      m_TileObjectToInstantiateIndex: 65535
      dummyAlignment: 0
      m_AllTileFlags: 1073741825
  - first: {x: 8, y: -8, z: 0}
    second:
      serializedVersion: 2
      m_TileIndex: 120
      m_TileSpriteIndex: 120
      m_TileMatrixIndex: 0
      m_TileColorIndex: 0
      m_TileObjectToInstantiateIndex: 65535
      dummyAlignment: 0
      m_AllTileFlags: 1073741825
  - first: {x: -3, y: -7, z: 0}
    second:
      serializedVersion: 2
      m_TileIndex: 97
      m_TileSpriteIndex: 97
      m_TileMatrixIndex: 0
      m_TileColorIndex: 0
      m_TileObjectToInstantiateIndex: 65535
      dummyAlignment: 0
      m_AllTileFlags: 1073741825
  - first: {x: -2, y: -7, z: 0}
    second:
      serializedVersion: 2
      m_TileIndex: 98
      m_TileSpriteIndex: 98
      m_TileMatrixIndex: 0
      m_TileColorIndex: 0
      m_TileObjectToInstantiateIndex: 65535
      dummyAlignment: 0
      m_AllTileFlags: 1073741825
  - first: {x: -1, y: -7, z: 0}
    second:
      serializedVersion: 2
      m_TileIndex: 99
      m_TileSpriteIndex: 99
      m_TileMatrixIndex: 0
      m_TileColorIndex: 0
      m_TileObjectToInstantiateIndex: 65535
      dummyAlignment: 0
      m_AllTileFlags: 1073741825
  - first: {x: 0, y: -7, z: 0}
    second:
      serializedVersion: 2
      m_TileIndex: 100
      m_TileSpriteIndex: 100
      m_TileMatrixIndex: 0
      m_TileColorIndex: 0
      m_TileObjectToInstantiateIndex: 65535
      dummyAlignment: 0
      m_AllTileFlags: 1073741825
  - first: {x: 1, y: -7, z: 0}
    second:
      serializedVersion: 2
      m_TileIndex: 101
      m_TileSpriteIndex: 101
      m_TileMatrixIndex: 0
      m_TileColorIndex: 0
      m_TileObjectToInstantiateIndex: 65535
      dummyAlignment: 0
      m_AllTileFlags: 1073741825
  - first: {x: 2, y: -7, z: 0}
    second:
      serializedVersion: 2
      m_TileIndex: 102
      m_TileSpriteIndex: 102
      m_TileMatrixIndex: 0
      m_TileColorIndex: 0
      m_TileObjectToInstantiateIndex: 65535
      dummyAlignment: 0
      m_AllTileFlags: 1073741825
  - first: {x: 3, y: -7, z: 0}
    second:
      serializedVersion: 2
      m_TileIndex: 103
      m_TileSpriteIndex: 103
      m_TileMatrixIndex: 0
      m_TileColorIndex: 0
      m_TileObjectToInstantiateIndex: 65535
      dummyAlignment: 0
      m_AllTileFlags: 1073741825
  - first: {x: 4, y: -7, z: 0}
    second:
      serializedVersion: 2
      m_TileIndex: 104
      m_TileSpriteIndex: 104
      m_TileMatrixIndex: 0
      m_TileColorIndex: 0
      m_TileObjectToInstantiateIndex: 65535
      dummyAlignment: 0
      m_AllTileFlags: 1073741825
  - first: {x: 5, y: -7, z: 0}
    second:
      serializedVersion: 2
      m_TileIndex: 105
      m_TileSpriteIndex: 105
      m_TileMatrixIndex: 0
      m_TileColorIndex: 0
      m_TileObjectToInstantiateIndex: 65535
      dummyAlignment: 0
      m_AllTileFlags: 1073741825
  - first: {x: 6, y: -7, z: 0}
    second:
      serializedVersion: 2
      m_TileIndex: 106
      m_TileSpriteIndex: 106
      m_TileMatrixIndex: 0
      m_TileColorIndex: 0
      m_TileObjectToInstantiateIndex: 65535
      dummyAlignment: 0
      m_AllTileFlags: 1073741825
  - first: {x: 7, y: -7, z: 0}
    second:
      serializedVersion: 2
      m_TileIndex: 107
      m_TileSpriteIndex: 107
      m_TileMatrixIndex: 0
      m_TileColorIndex: 0
      m_TileObjectToInstantiateIndex: 65535
      dummyAlignment: 0
      m_AllTileFlags: 1073741825
  - first: {x: 8, y: -7, z: 0}
    second:
      serializedVersion: 2
      m_TileIndex: 108
      m_TileSpriteIndex: 108
      m_TileMatrixIndex: 0
      m_TileColorIndex: 0
      m_TileObjectToInstantiateIndex: 65535
      dummyAlignment: 0
      m_AllTileFlags: 1073741825
  - first: {x: -3, y: -6, z: 0}
    second:
      serializedVersion: 2
      m_TileIndex: 85
      m_TileSpriteIndex: 85
      m_TileMatrixIndex: 0
      m_TileColorIndex: 0
      m_TileObjectToInstantiateIndex: 65535
      dummyAlignment: 0
      m_AllTileFlags: 1073741825
  - first: {x: -2, y: -6, z: 0}
    second:
      serializedVersion: 2
      m_TileIndex: 86
      m_TileSpriteIndex: 86
      m_TileMatrixIndex: 0
      m_TileColorIndex: 0
      m_TileObjectToInstantiateIndex: 65535
      dummyAlignment: 0
      m_AllTileFlags: 1073741825
  - first: {x: -1, y: -6, z: 0}
    second:
      serializedVersion: 2
      m_TileIndex: 87
      m_TileSpriteIndex: 87
      m_TileMatrixIndex: 0
      m_TileColorIndex: 0
      m_TileObjectToInstantiateIndex: 65535
      dummyAlignment: 0
      m_AllTileFlags: 1073741825
  - first: {x: 0, y: -6, z: 0}
    second:
      serializedVersion: 2
      m_TileIndex: 88
      m_TileSpriteIndex: 88
      m_TileMatrixIndex: 0
      m_TileColorIndex: 0
      m_TileObjectToInstantiateIndex: 65535
      dummyAlignment: 0
      m_AllTileFlags: 1073741825
  - first: {x: 1, y: -6, z: 0}
    second:
      serializedVersion: 2
      m_TileIndex: 89
      m_TileSpriteIndex: 89
      m_TileMatrixIndex: 0
      m_TileColorIndex: 0
      m_TileObjectToInstantiateIndex: 65535
      dummyAlignment: 0
      m_AllTileFlags: 1073741825
  - first: {x: 2, y: -6, z: 0}
    second:
      serializedVersion: 2
      m_TileIndex: 90
      m_TileSpriteIndex: 90
      m_TileMatrixIndex: 0
      m_TileColorIndex: 0
      m_TileObjectToInstantiateIndex: 65535
      dummyAlignment: 0
      m_AllTileFlags: 1073741825
  - first: {x: 3, y: -6, z: 0}
    second:
      serializedVersion: 2
      m_TileIndex: 91
      m_TileSpriteIndex: 91
      m_TileMatrixIndex: 0
      m_TileColorIndex: 0
      m_TileObjectToInstantiateIndex: 65535
      dummyAlignment: 0
      m_AllTileFlags: 1073741825
  - first: {x: 4, y: -6, z: 0}
    second:
      serializedVersion: 2
      m_TileIndex: 92
      m_TileSpriteIndex: 92
      m_TileMatrixIndex: 0
      m_TileColorIndex: 0
      m_TileObjectToInstantiateIndex: 65535
      dummyAlignment: 0
      m_AllTileFlags: 1073741825
  - first: {x: 5, y: -6, z: 0}
    second:
      serializedVersion: 2
      m_TileIndex: 93
      m_TileSpriteIndex: 93
      m_TileMatrixIndex: 0
      m_TileColorIndex: 0
      m_TileObjectToInstantiateIndex: 65535
      dummyAlignment: 0
      m_AllTileFlags: 1073741825
  - first: {x: 6, y: -6, z: 0}
    second:
      serializedVersion: 2
      m_TileIndex: 94
      m_TileSpriteIndex: 94
      m_TileMatrixIndex: 0
      m_TileColorIndex: 0
      m_TileObjectToInstantiateIndex: 65535
      dummyAlignment: 0
      m_AllTileFlags: 1073741825
  - first: {x: 7, y: -6, z: 0}
    second:
      serializedVersion: 2
      m_TileIndex: 95
      m_TileSpriteIndex: 95
      m_TileMatrixIndex: 0
      m_TileColorIndex: 0
      m_TileObjectToInstantiateIndex: 65535
      dummyAlignment: 0
      m_AllTileFlags: 1073741825
  - first: {x: 8, y: -6, z: 0}
    second:
      serializedVersion: 2
      m_TileIndex: 96
      m_TileSpriteIndex: 96
      m_TileMatrixIndex: 0
      m_TileColorIndex: 0
      m_TileObjectToInstantiateIndex: 65535
      dummyAlignment: 0
      m_AllTileFlags: 1073741825
  - first: {x: -3, y: -5, z: 0}
    second:
      serializedVersion: 2
      m_TileIndex: 73
      m_TileSpriteIndex: 73
      m_TileMatrixIndex: 0
      m_TileColorIndex: 0
      m_TileObjectToInstantiateIndex: 65535
      dummyAlignment: 0
      m_AllTileFlags: 1073741825
  - first: {x: -2, y: -5, z: 0}
    second:
      serializedVersion: 2
      m_TileIndex: 74
      m_TileSpriteIndex: 74
      m_TileMatrixIndex: 0
      m_TileColorIndex: 0
      m_TileObjectToInstantiateIndex: 65535
      dummyAlignment: 0
      m_AllTileFlags: 1073741825
  - first: {x: -1, y: -5, z: 0}
    second:
      serializedVersion: 2
      m_TileIndex: 75
      m_TileSpriteIndex: 75
      m_TileMatrixIndex: 0
      m_TileColorIndex: 0
      m_TileObjectToInstantiateIndex: 65535
      dummyAlignment: 0
      m_AllTileFlags: 1073741825
  - first: {x: 0, y: -5, z: 0}
    second:
      serializedVersion: 2
      m_TileIndex: 76
      m_TileSpriteIndex: 76
      m_TileMatrixIndex: 0
      m_TileColorIndex: 0
      m_TileObjectToInstantiateIndex: 65535
      dummyAlignment: 0
      m_AllTileFlags: 1073741825
  - first: {x: 1, y: -5, z: 0}
    second:
      serializedVersion: 2
      m_TileIndex: 77
      m_TileSpriteIndex: 77
      m_TileMatrixIndex: 0
      m_TileColorIndex: 0
      m_TileObjectToInstantiateIndex: 65535
      dummyAlignment: 0
      m_AllTileFlags: 1073741825
  - first: {x: 2, y: -5, z: 0}
    second:
      serializedVersion: 2
      m_TileIndex: 78
      m_TileSpriteIndex: 78
      m_TileMatrixIndex: 0
      m_TileColorIndex: 0
      m_TileObjectToInstantiateIndex: 65535
      dummyAlignment: 0
      m_AllTileFlags: 1073741825
  - first: {x: 3, y: -5, z: 0}
    second:
      serializedVersion: 2
      m_TileIndex: 79
      m_TileSpriteIndex: 79
      m_TileMatrixIndex: 0
      m_TileColorIndex: 0
      m_TileObjectToInstantiateIndex: 65535
      dummyAlignment: 0
      m_AllTileFlags: 1073741825
  - first: {x: 4, y: -5, z: 0}
    second:
      serializedVersion: 2
      m_TileIndex: 80
      m_TileSpriteIndex: 80
      m_TileMatrixIndex: 0
      m_TileColorIndex: 0
      m_TileObjectToInstantiateIndex: 65535
      dummyAlignment: 0
      m_AllTileFlags: 1073741825
  - first: {x: 5, y: -5, z: 0}
    second:
      serializedVersion: 2
      m_TileIndex: 81
      m_TileSpriteIndex: 81
      m_TileMatrixIndex: 0
      m_TileColorIndex: 0
      m_TileObjectToInstantiateIndex: 65535
      dummyAlignment: 0
      m_AllTileFlags: 1073741825
  - first: {x: 6, y: -5, z: 0}
    second:
      serializedVersion: 2
      m_TileIndex: 82
      m_TileSpriteIndex: 82
      m_TileMatrixIndex: 0
      m_TileColorIndex: 0
      m_TileObjectToInstantiateIndex: 65535
      dummyAlignment: 0
      m_AllTileFlags: 1073741825
  - first: {x: 7, y: -5, z: 0}
    second:
      serializedVersion: 2
      m_TileIndex: 83
      m_TileSpriteIndex: 83
      m_TileMatrixIndex: 0
      m_TileColorIndex: 0
      m_TileObjectToInstantiateIndex: 65535
      dummyAlignment: 0
      m_AllTileFlags: 1073741825
  - first: {x: 8, y: -5, z: 0}
    second:
      serializedVersion: 2
      m_TileIndex: 84
      m_TileSpriteIndex: 84
      m_TileMatrixIndex: 0
      m_TileColorIndex: 0
      m_TileObjectToInstantiateIndex: 65535
      dummyAlignment: 0
      m_AllTileFlags: 1073741825
  - first: {x: -3, y: -4, z: 0}
    second:
      serializedVersion: 2
      m_TileIndex: 61
      m_TileSpriteIndex: 61
      m_TileMatrixIndex: 0
      m_TileColorIndex: 0
      m_TileObjectToInstantiateIndex: 65535
      dummyAlignment: 0
      m_AllTileFlags: 1073741825
  - first: {x: -2, y: -4, z: 0}
    second:
      serializedVersion: 2
      m_TileIndex: 62
      m_TileSpriteIndex: 62
      m_TileMatrixIndex: 0
      m_TileColorIndex: 0
      m_TileObjectToInstantiateIndex: 65535
      dummyAlignment: 0
      m_AllTileFlags: 1073741825
  - first: {x: -1, y: -4, z: 0}
    second:
      serializedVersion: 2
      m_TileIndex: 63
      m_TileSpriteIndex: 63
      m_TileMatrixIndex: 0
      m_TileColorIndex: 0
      m_TileObjectToInstantiateIndex: 65535
      dummyAlignment: 0
      m_AllTileFlags: 1073741825
  - first: {x: 0, y: -4, z: 0}
    second:
      serializedVersion: 2
      m_TileIndex: 64
      m_TileSpriteIndex: 64
      m_TileMatrixIndex: 0
      m_TileColorIndex: 0
      m_TileObjectToInstantiateIndex: 65535
      dummyAlignment: 0
      m_AllTileFlags: 1073741825
  - first: {x: 1, y: -4, z: 0}
    second:
      serializedVersion: 2
      m_TileIndex: 65
      m_TileSpriteIndex: 65
      m_TileMatrixIndex: 0
      m_TileColorIndex: 0
      m_TileObjectToInstantiateIndex: 65535
      dummyAlignment: 0
      m_AllTileFlags: 1073741825
  - first: {x: 2, y: -4, z: 0}
    second:
      serializedVersion: 2
      m_TileIndex: 66
      m_TileSpriteIndex: 66
      m_TileMatrixIndex: 0
      m_TileColorIndex: 0
      m_TileObjectToInstantiateIndex: 65535
      dummyAlignment: 0
      m_AllTileFlags: 1073741825
  - first: {x: 3, y: -4, z: 0}
    second:
      serializedVersion: 2
      m_TileIndex: 67
      m_TileSpriteIndex: 67
      m_TileMatrixIndex: 0
      m_TileColorIndex: 0
      m_TileObjectToInstantiateIndex: 65535
      dummyAlignment: 0
      m_AllTileFlags: 1073741825
  - first: {x: 4, y: -4, z: 0}
    second:
      serializedVersion: 2
      m_TileIndex: 68
      m_TileSpriteIndex: 68
      m_TileMatrixIndex: 0
      m_TileColorIndex: 0
      m_TileObjectToInstantiateIndex: 65535
      dummyAlignment: 0
      m_AllTileFlags: 1073741825
  - first: {x: 5, y: -4, z: 0}
    second:
      serializedVersion: 2
      m_TileIndex: 69
      m_TileSpriteIndex: 69
      m_TileMatrixIndex: 0
      m_TileColorIndex: 0
      m_TileObjectToInstantiateIndex: 65535
      dummyAlignment: 0
      m_AllTileFlags: 1073741825
  - first: {x: 6, y: -4, z: 0}
    second:
      serializedVersion: 2
      m_TileIndex: 70
      m_TileSpriteIndex: 70
      m_TileMatrixIndex: 0
      m_TileColorIndex: 0
      m_TileObjectToInstantiateIndex: 65535
      dummyAlignment: 0
      m_AllTileFlags: 1073741825
  - first: {x: 7, y: -4, z: 0}
    second:
      serializedVersion: 2
      m_TileIndex: 71
      m_TileSpriteIndex: 71
      m_TileMatrixIndex: 0
      m_TileColorIndex: 0
      m_TileObjectToInstantiateIndex: 65535
      dummyAlignment: 0
      m_AllTileFlags: 1073741825
  - first: {x: 8, y: -4, z: 0}
    second:
      serializedVersion: 2
      m_TileIndex: 72
      m_TileSpriteIndex: 72
      m_TileMatrixIndex: 0
      m_TileColorIndex: 0
      m_TileObjectToInstantiateIndex: 65535
      dummyAlignment: 0
      m_AllTileFlags: 1073741825
  - first: {x: -3, y: -3, z: 0}
    second:
      serializedVersion: 2
      m_TileIndex: 49
      m_TileSpriteIndex: 49
      m_TileMatrixIndex: 0
      m_TileColorIndex: 0
      m_TileObjectToInstantiateIndex: 65535
      dummyAlignment: 0
      m_AllTileFlags: 1073741825
  - first: {x: -2, y: -3, z: 0}
    second:
      serializedVersion: 2
      m_TileIndex: 50
      m_TileSpriteIndex: 50
      m_TileMatrixIndex: 0
      m_TileColorIndex: 0
      m_TileObjectToInstantiateIndex: 65535
      dummyAlignment: 0
      m_AllTileFlags: 1073741825
  - first: {x: -1, y: -3, z: 0}
    second:
      serializedVersion: 2
      m_TileIndex: 51
      m_TileSpriteIndex: 51
      m_TileMatrixIndex: 0
      m_TileColorIndex: 0
      m_TileObjectToInstantiateIndex: 65535
      dummyAlignment: 0
      m_AllTileFlags: 1073741825
  - first: {x: 0, y: -3, z: 0}
    second:
      serializedVersion: 2
      m_TileIndex: 52
      m_TileSpriteIndex: 52
      m_TileMatrixIndex: 0
      m_TileColorIndex: 0
      m_TileObjectToInstantiateIndex: 65535
      dummyAlignment: 0
      m_AllTileFlags: 1073741825
  - first: {x: 1, y: -3, z: 0}
    second:
      serializedVersion: 2
      m_TileIndex: 53
      m_TileSpriteIndex: 53
      m_TileMatrixIndex: 0
      m_TileColorIndex: 0
      m_TileObjectToInstantiateIndex: 65535
      dummyAlignment: 0
      m_AllTileFlags: 1073741825
  - first: {x: 2, y: -3, z: 0}
    second:
      serializedVersion: 2
      m_TileIndex: 54
      m_TileSpriteIndex: 54
      m_TileMatrixIndex: 0
      m_TileColorIndex: 0
      m_TileObjectToInstantiateIndex: 65535
      dummyAlignment: 0
      m_AllTileFlags: 1073741825
  - first: {x: 3, y: -3, z: 0}
    second:
      serializedVersion: 2
      m_TileIndex: 55
      m_TileSpriteIndex: 55
      m_TileMatrixIndex: 0
      m_TileColorIndex: 0
      m_TileObjectToInstantiateIndex: 65535
      dummyAlignment: 0
      m_AllTileFlags: 1073741825
  - first: {x: 4, y: -3, z: 0}
    second:
      serializedVersion: 2
      m_TileIndex: 56
      m_TileSpriteIndex: 56
      m_TileMatrixIndex: 0
      m_TileColorIndex: 0
      m_TileObjectToInstantiateIndex: 65535
      dummyAlignment: 0
      m_AllTileFlags: 1073741825
  - first: {x: 5, y: -3, z: 0}
    second:
      serializedVersion: 2
      m_TileIndex: 57
      m_TileSpriteIndex: 57
      m_TileMatrixIndex: 0
      m_TileColorIndex: 0
      m_TileObjectToInstantiateIndex: 65535
      dummyAlignment: 0
      m_AllTileFlags: 1073741825
  - first: {x: 6, y: -3, z: 0}
    second:
      serializedVersion: 2
      m_TileIndex: 58
      m_TileSpriteIndex: 58
      m_TileMatrixIndex: 0
      m_TileColorIndex: 0
      m_TileObjectToInstantiateIndex: 65535
      dummyAlignment: 0
      m_AllTileFlags: 1073741825
  - first: {x: 7, y: -3, z: 0}
    second:
      serializedVersion: 2
      m_TileIndex: 59
      m_TileSpriteIndex: 59
      m_TileMatrixIndex: 0
      m_TileColorIndex: 0
      m_TileObjectToInstantiateIndex: 65535
      dummyAlignment: 0
      m_AllTileFlags: 1073741825
  - first: {x: 8, y: -3, z: 0}
    second:
      serializedVersion: 2
      m_TileIndex: 60
      m_TileSpriteIndex: 60
      m_TileMatrixIndex: 0
      m_TileColorIndex: 0
      m_TileObjectToInstantiateIndex: 65535
      dummyAlignment: 0
      m_AllTileFlags: 1073741825
  - first: {x: -3, y: -2, z: 0}
    second:
      serializedVersion: 2
      m_TileIndex: 37
      m_TileSpriteIndex: 37
      m_TileMatrixIndex: 0
      m_TileColorIndex: 0
      m_TileObjectToInstantiateIndex: 65535
      dummyAlignment: 0
      m_AllTileFlags: 1073741825
  - first: {x: -2, y: -2, z: 0}
    second:
      serializedVersion: 2
      m_TileIndex: 38
      m_TileSpriteIndex: 38
      m_TileMatrixIndex: 0
      m_TileColorIndex: 0
      m_TileObjectToInstantiateIndex: 65535
      dummyAlignment: 0
      m_AllTileFlags: 1073741825
  - first: {x: -1, y: -2, z: 0}
    second:
      serializedVersion: 2
      m_TileIndex: 39
      m_TileSpriteIndex: 39
      m_TileMatrixIndex: 0
      m_TileColorIndex: 0
      m_TileObjectToInstantiateIndex: 65535
      dummyAlignment: 0
      m_AllTileFlags: 1073741825
  - first: {x: 0, y: -2, z: 0}
    second:
      serializedVersion: 2
      m_TileIndex: 40
      m_TileSpriteIndex: 40
      m_TileMatrixIndex: 0
      m_TileColorIndex: 0
      m_TileObjectToInstantiateIndex: 65535
      dummyAlignment: 0
      m_AllTileFlags: 1073741825
  - first: {x: 1, y: -2, z: 0}
    second:
      serializedVersion: 2
      m_TileIndex: 41
      m_TileSpriteIndex: 41
      m_TileMatrixIndex: 0
      m_TileColorIndex: 0
      m_TileObjectToInstantiateIndex: 65535
      dummyAlignment: 0
      m_AllTileFlags: 1073741825
  - first: {x: 2, y: -2, z: 0}
    second:
      serializedVersion: 2
      m_TileIndex: 42
      m_TileSpriteIndex: 42
      m_TileMatrixIndex: 0
      m_TileColorIndex: 0
      m_TileObjectToInstantiateIndex: 65535
      dummyAlignment: 0
      m_AllTileFlags: 1073741825
  - first: {x: 3, y: -2, z: 0}
    second:
      serializedVersion: 2
      m_TileIndex: 43
      m_TileSpriteIndex: 43
      m_TileMatrixIndex: 0
      m_TileColorIndex: 0
      m_TileObjectToInstantiateIndex: 65535
      dummyAlignment: 0
      m_AllTileFlags: 1073741825
  - first: {x: 4, y: -2, z: 0}
    second:
      serializedVersion: 2
      m_TileIndex: 44
      m_TileSpriteIndex: 44
      m_TileMatrixIndex: 0
      m_TileColorIndex: 0
      m_TileObjectToInstantiateIndex: 65535
      dummyAlignment: 0
      m_AllTileFlags: 1073741825
  - first: {x: 5, y: -2, z: 0}
    second:
      serializedVersion: 2
      m_TileIndex: 45
      m_TileSpriteIndex: 45
      m_TileMatrixIndex: 0
      m_TileColorIndex: 0
      m_TileObjectToInstantiateIndex: 65535
      dummyAlignment: 0
      m_AllTileFlags: 1073741825
  - first: {x: 6, y: -2, z: 0}
    second:
      serializedVersion: 2
      m_TileIndex: 46
      m_TileSpriteIndex: 46
      m_TileMatrixIndex: 0
      m_TileColorIndex: 0
      m_TileObjectToInstantiateIndex: 65535
      dummyAlignment: 0
      m_AllTileFlags: 1073741825
  - first: {x: 7, y: -2, z: 0}
    second:
      serializedVersion: 2
      m_TileIndex: 47
      m_TileSpriteIndex: 47
      m_TileMatrixIndex: 0
      m_TileColorIndex: 0
      m_TileObjectToInstantiateIndex: 65535
      dummyAlignment: 0
      m_AllTileFlags: 1073741825
  - first: {x: 8, y: -2, z: 0}
    second:
      serializedVersion: 2
      m_TileIndex: 48
      m_TileSpriteIndex: 48
      m_TileMatrixIndex: 0
      m_TileColorIndex: 0
      m_TileObjectToInstantiateIndex: 65535
      dummyAlignment: 0
      m_AllTileFlags: 1073741825
  - first: {x: -3, y: -1, z: 0}
    second:
      serializedVersion: 2
      m_TileIndex: 25
      m_TileSpriteIndex: 25
      m_TileMatrixIndex: 0
      m_TileColorIndex: 0
      m_TileObjectToInstantiateIndex: 65535
      dummyAlignment: 0
      m_AllTileFlags: 1073741825
  - first: {x: -2, y: -1, z: 0}
    second:
      serializedVersion: 2
      m_TileIndex: 26
      m_TileSpriteIndex: 26
      m_TileMatrixIndex: 0
      m_TileColorIndex: 0
      m_TileObjectToInstantiateIndex: 65535
      dummyAlignment: 0
      m_AllTileFlags: 1073741825
  - first: {x: -1, y: -1, z: 0}
    second:
      serializedVersion: 2
      m_TileIndex: 27
      m_TileSpriteIndex: 27
      m_TileMatrixIndex: 0
      m_TileColorIndex: 0
      m_TileObjectToInstantiateIndex: 65535
      dummyAlignment: 0
      m_AllTileFlags: 1073741825
  - first: {x: 0, y: -1, z: 0}
    second:
      serializedVersion: 2
      m_TileIndex: 28
      m_TileSpriteIndex: 28
      m_TileMatrixIndex: 0
      m_TileColorIndex: 0
      m_TileObjectToInstantiateIndex: 65535
      dummyAlignment: 0
      m_AllTileFlags: 1073741825
  - first: {x: 1, y: -1, z: 0}
    second:
      serializedVersion: 2
      m_TileIndex: 29
      m_TileSpriteIndex: 29
      m_TileMatrixIndex: 0
      m_TileColorIndex: 0
      m_TileObjectToInstantiateIndex: 65535
      dummyAlignment: 0
      m_AllTileFlags: 1073741825
  - first: {x: 2, y: -1, z: 0}
    second:
      serializedVersion: 2
      m_TileIndex: 30
      m_TileSpriteIndex: 30
      m_TileMatrixIndex: 0
      m_TileColorIndex: 0
      m_TileObjectToInstantiateIndex: 65535
      dummyAlignment: 0
      m_AllTileFlags: 1073741825
  - first: {x: 3, y: -1, z: 0}
    second:
      serializedVersion: 2
      m_TileIndex: 31
      m_TileSpriteIndex: 31
      m_TileMatrixIndex: 0
      m_TileColorIndex: 0
      m_TileObjectToInstantiateIndex: 65535
      dummyAlignment: 0
      m_AllTileFlags: 1073741825
  - first: {x: 4, y: -1, z: 0}
    second:
      serializedVersion: 2
      m_TileIndex: 32
      m_TileSpriteIndex: 32
      m_TileMatrixIndex: 0
      m_TileColorIndex: 0
      m_TileObjectToInstantiateIndex: 65535
      dummyAlignment: 0
      m_AllTileFlags: 1073741825
  - first: {x: 5, y: -1, z: 0}
    second:
      serializedVersion: 2
      m_TileIndex: 33
      m_TileSpriteIndex: 33
      m_TileMatrixIndex: 0
      m_TileColorIndex: 0
      m_TileObjectToInstantiateIndex: 65535
      dummyAlignment: 0
      m_AllTileFlags: 1073741825
  - first: {x: 6, y: -1, z: 0}
    second:
      serializedVersion: 2
      m_TileIndex: 34
      m_TileSpriteIndex: 34
      m_TileMatrixIndex: 0
      m_TileColorIndex: 0
      m_TileObjectToInstantiateIndex: 65535
      dummyAlignment: 0
      m_AllTileFlags: 1073741825
  - first: {x: 7, y: -1, z: 0}
    second:
      serializedVersion: 2
      m_TileIndex: 35
      m_TileSpriteIndex: 35
      m_TileMatrixIndex: 0
      m_TileColorIndex: 0
      m_TileObjectToInstantiateIndex: 65535
      dummyAlignment: 0
      m_AllTileFlags: 1073741825
  - first: {x: 8, y: -1, z: 0}
    second:
      serializedVersion: 2
      m_TileIndex: 36
      m_TileSpriteIndex: 36
      m_TileMatrixIndex: 0
      m_TileColorIndex: 0
      m_TileObjectToInstantiateIndex: 65535
      dummyAlignment: 0
      m_AllTileFlags: 1073741825
  - first: {x: -4, y: 0, z: 0}
    second:
      serializedVersion: 2
      m_TileIndex: 0
      m_TileSpriteIndex: 4294967295
      m_TileMatrixIndex: 0
      m_TileColorIndex: 0
      m_TileObjectToInstantiateIndex: 65535
      dummyAlignment: 0
      m_AllTileFlags: 1073741825
  - first: {x: -3, y: 0, z: 0}
    second:
      serializedVersion: 2
      m_TileIndex: 13
      m_TileSpriteIndex: 13
      m_TileMatrixIndex: 0
      m_TileColorIndex: 0
      m_TileObjectToInstantiateIndex: 65535
      dummyAlignment: 0
      m_AllTileFlags: 1073741825
  - first: {x: -2, y: 0, z: 0}
    second:
      serializedVersion: 2
      m_TileIndex: 14
      m_TileSpriteIndex: 14
      m_TileMatrixIndex: 0
      m_TileColorIndex: 0
      m_TileObjectToInstantiateIndex: 65535
      dummyAlignment: 0
      m_AllTileFlags: 1073741825
  - first: {x: -1, y: 0, z: 0}
    second:
      serializedVersion: 2
      m_TileIndex: 15
      m_TileSpriteIndex: 15
      m_TileMatrixIndex: 0
      m_TileColorIndex: 0
      m_TileObjectToInstantiateIndex: 65535
      dummyAlignment: 0
      m_AllTileFlags: 1073741825
  - first: {x: 0, y: 0, z: 0}
    second:
      serializedVersion: 2
      m_TileIndex: 16
      m_TileSpriteIndex: 16
      m_TileMatrixIndex: 0
      m_TileColorIndex: 0
      m_TileObjectToInstantiateIndex: 65535
      dummyAlignment: 0
      m_AllTileFlags: 1073741825
  - first: {x: 1, y: 0, z: 0}
    second:
      serializedVersion: 2
      m_TileIndex: 17
      m_TileSpriteIndex: 17
      m_TileMatrixIndex: 0
      m_TileColorIndex: 0
      m_TileObjectToInstantiateIndex: 65535
      dummyAlignment: 0
      m_AllTileFlags: 1073741825
  - first: {x: 2, y: 0, z: 0}
    second:
      serializedVersion: 2
      m_TileIndex: 18
      m_TileSpriteIndex: 18
      m_TileMatrixIndex: 0
      m_TileColorIndex: 0
      m_TileObjectToInstantiateIndex: 65535
      dummyAlignment: 0
      m_AllTileFlags: 1073741825
  - first: {x: 3, y: 0, z: 0}
    second:
      serializedVersion: 2
      m_TileIndex: 19
      m_TileSpriteIndex: 19
      m_TileMatrixIndex: 0
      m_TileColorIndex: 0
      m_TileObjectToInstantiateIndex: 65535
      dummyAlignment: 0
      m_AllTileFlags: 1073741825
  - first: {x: 4, y: 0, z: 0}
    second:
      serializedVersion: 2
      m_TileIndex: 20
      m_TileSpriteIndex: 20
      m_TileMatrixIndex: 0
      m_TileColorIndex: 0
      m_TileObjectToInstantiateIndex: 65535
      dummyAlignment: 0
      m_AllTileFlags: 1073741825
  - first: {x: 5, y: 0, z: 0}
    second:
      serializedVersion: 2
      m_TileIndex: 21
      m_TileSpriteIndex: 21
      m_TileMatrixIndex: 0
      m_TileColorIndex: 0
      m_TileObjectToInstantiateIndex: 65535
      dummyAlignment: 0
      m_AllTileFlags: 1073741825
  - first: {x: 6, y: 0, z: 0}
    second:
      serializedVersion: 2
      m_TileIndex: 22
      m_TileSpriteIndex: 22
      m_TileMatrixIndex: 0
      m_TileColorIndex: 0
      m_TileObjectToInstantiateIndex: 65535
      dummyAlignment: 0
      m_AllTileFlags: 1073741825
  - first: {x: 7, y: 0, z: 0}
    second:
      serializedVersion: 2
      m_TileIndex: 23
      m_TileSpriteIndex: 23
      m_TileMatrixIndex: 0
      m_TileColorIndex: 0
      m_TileObjectToInstantiateIndex: 65535
      dummyAlignment: 0
      m_AllTileFlags: 1073741825
  - first: {x: 8, y: 0, z: 0}
    second:
      serializedVersion: 2
      m_TileIndex: 24
      m_TileSpriteIndex: 24
      m_TileMatrixIndex: 0
      m_TileColorIndex: 0
      m_TileObjectToInstantiateIndex: 65535
      dummyAlignment: 0
      m_AllTileFlags: 1073741825
  - first: {x: -3, y: 1, z: 0}
    second:
      serializedVersion: 2
      m_TileIndex: 1
      m_TileSpriteIndex: 1
      m_TileMatrixIndex: 0
      m_TileColorIndex: 0
      m_TileObjectToInstantiateIndex: 65535
      dummyAlignment: 0
      m_AllTileFlags: 1073741825
  - first: {x: -2, y: 1, z: 0}
    second:
      serializedVersion: 2
      m_TileIndex: 2
      m_TileSpriteIndex: 2
      m_TileMatrixIndex: 0
      m_TileColorIndex: 0
      m_TileObjectToInstantiateIndex: 65535
      dummyAlignment: 0
      m_AllTileFlags: 1073741825
  - first: {x: -1, y: 1, z: 0}
    second:
      serializedVersion: 2
      m_TileIndex: 3
      m_TileSpriteIndex: 3
      m_TileMatrixIndex: 0
      m_TileColorIndex: 0
      m_TileObjectToInstantiateIndex: 65535
      dummyAlignment: 0
      m_AllTileFlags: 1073741825
  - first: {x: 0, y: 1, z: 0}
    second:
      serializedVersion: 2
      m_TileIndex: 4
      m_TileSpriteIndex: 4
      m_TileMatrixIndex: 0
      m_TileColorIndex: 0
      m_TileObjectToInstantiateIndex: 65535
      dummyAlignment: 0
      m_AllTileFlags: 1073741825
  - first: {x: 1, y: 1, z: 0}
    second:
      serializedVersion: 2
      m_TileIndex: 5
      m_TileSpriteIndex: 5
      m_TileMatrixIndex: 0
      m_TileColorIndex: 0
      m_TileObjectToInstantiateIndex: 65535
      dummyAlignment: 0
      m_AllTileFlags: 1073741825
  - first: {x: 2, y: 1, z: 0}
    second:
      serializedVersion: 2
      m_TileIndex: 6
      m_TileSpriteIndex: 6
      m_TileMatrixIndex: 0
      m_TileColorIndex: 0
      m_TileObjectToInstantiateIndex: 65535
      dummyAlignment: 0
      m_AllTileFlags: 1073741825
  - first: {x: 3, y: 1, z: 0}
    second:
      serializedVersion: 2
      m_TileIndex: 7
      m_TileSpriteIndex: 7
      m_TileMatrixIndex: 0
      m_TileColorIndex: 0
      m_TileObjectToInstantiateIndex: 65535
      dummyAlignment: 0
      m_AllTileFlags: 1073741825
  - first: {x: 4, y: 1, z: 0}
    second:
      serializedVersion: 2
      m_TileIndex: 8
      m_TileSpriteIndex: 8
      m_TileMatrixIndex: 0
      m_TileColorIndex: 0
      m_TileObjectToInstantiateIndex: 65535
      dummyAlignment: 0
      m_AllTileFlags: 1073741825
  - first: {x: 5, y: 1, z: 0}
    second:
      serializedVersion: 2
      m_TileIndex: 9
      m_TileSpriteIndex: 9
      m_TileMatrixIndex: 0
      m_TileColorIndex: 0
      m_TileObjectToInstantiateIndex: 65535
      dummyAlignment: 0
      m_AllTileFlags: 1073741825
  - first: {x: 6, y: 1, z: 0}
    second:
      serializedVersion: 2
      m_TileIndex: 10
      m_TileSpriteIndex: 10
      m_TileMatrixIndex: 0
      m_TileColorIndex: 0
      m_TileObjectToInstantiateIndex: 65535
      dummyAlignment: 0
      m_AllTileFlags: 1073741825
  - first: {x: 7, y: 1, z: 0}
    second:
      serializedVersion: 2
      m_TileIndex: 11
      m_TileSpriteIndex: 11
      m_TileMatrixIndex: 0
      m_TileColorIndex: 0
      m_TileObjectToInstantiateIndex: 65535
      dummyAlignment: 0
      m_AllTileFlags: 1073741825
  - first: {x: 8, y: 1, z: 0}
    second:
      serializedVersion: 2
      m_TileIndex: 12
      m_TileSpriteIndex: 12
      m_TileMatrixIndex: 0
      m_TileColorIndex: 0
      m_TileObjectToInstantiateIndex: 65535
      dummyAlignment: 0
      m_AllTileFlags: 1073741825
  - first: {x: -5, y: 2, z: 0}
    second:
      serializedVersion: 2
      m_TileIndex: 147
      m_TileSpriteIndex: 146
      m_TileMatrixIndex: 0
      m_TileColorIndex: 0
      m_TileObjectToInstantiateIndex: 65535
      dummyAlignment: 0
      m_AllTileFlags: 1073741825
  - first: {x: -4, y: 2, z: 0}
    second:
      serializedVersion: 2
      m_TileIndex: 148
      m_TileSpriteIndex: 147
      m_TileMatrixIndex: 0
      m_TileColorIndex: 0
      m_TileObjectToInstantiateIndex: 65535
      dummyAlignment: 0
      m_AllTileFlags: 1073741825
  - first: {x: -5, y: 3, z: 0}
    second:
      serializedVersion: 2
      m_TileIndex: 145
      m_TileSpriteIndex: 0
      m_TileMatrixIndex: 0
      m_TileColorIndex: 0
      m_TileObjectToInstantiateIndex: 65535
      dummyAlignment: 0
      m_AllTileFlags: 1073741825
  - first: {x: -4, y: 3, z: 0}
    second:
      serializedVersion: 2
      m_TileIndex: 146
      m_TileSpriteIndex: 145
      m_TileMatrixIndex: 0
      m_TileColorIndex: 0
      m_TileObjectToInstantiateIndex: 65535
      dummyAlignment: 0
      m_AllTileFlags: 1073741825
  m_AnimatedTiles: {}
  m_TileAssetArray:
  - m_RefCount: 1
    m_Data: {fileID: 11400000, guid: 4e7504e68b7cb6044b1721fe9c2e12f7, type: 2}
  - m_RefCount: 1
    m_Data: {fileID: 11400000, guid: 5a1b6d1fb36d7cc4ea87bcbe878e3875, type: 2}
  - m_RefCount: 1
    m_Data: {fileID: 11400000, guid: cf4ea950e8371fa42b63a6bae458efd9, type: 2}
  - m_RefCount: 1
    m_Data: {fileID: 11400000, guid: e6a9d4bf1b2787d4e81427e441c23021, type: 2}
  - m_RefCount: 1
    m_Data: {fileID: 11400000, guid: 88223d803005c62438321838f4e10b92, type: 2}
  - m_RefCount: 1
    m_Data: {fileID: 11400000, guid: 8016a4e4d42e8704492db15092ecfc96, type: 2}
  - m_RefCount: 1
    m_Data: {fileID: 11400000, guid: c8b8d22859feabc4abefbe5daf878c31, type: 2}
  - m_RefCount: 1
    m_Data: {fileID: 11400000, guid: ea4381079670ffd43b26be52f9ba0f6f, type: 2}
  - m_RefCount: 1
    m_Data: {fileID: 11400000, guid: 0d640230fd45c274d808f7e782e6a523, type: 2}
  - m_RefCount: 1
    m_Data: {fileID: 11400000, guid: c3bea2110f8cf2047a523bb3ff47fec4, type: 2}
  - m_RefCount: 1
    m_Data: {fileID: 11400000, guid: 09a8f6d836646af4eb1de655d0a55520, type: 2}
  - m_RefCount: 1
    m_Data: {fileID: 11400000, guid: f8cd08db85e27254abe8af097b5cb400, type: 2}
  - m_RefCount: 1
    m_Data: {fileID: 11400000, guid: 3921fb1ebd6db264a8f5bffa3998db7b, type: 2}
  - m_RefCount: 1
    m_Data: {fileID: 11400000, guid: deca9a7c82a8718429cb763d9105e069, type: 2}
  - m_RefCount: 1
    m_Data: {fileID: 11400000, guid: 004e83bbf89311c4cbd44f7875d23f5d, type: 2}
  - m_RefCount: 1
    m_Data: {fileID: 11400000, guid: b749369656585a141920dfec9fb301f7, type: 2}
  - m_RefCount: 1
    m_Data: {fileID: 11400000, guid: 632c76ddb01ef6249af521daf606eb5b, type: 2}
  - m_RefCount: 1
    m_Data: {fileID: 11400000, guid: d108fbf89ef5b004784a5ea1bd401b33, type: 2}
  - m_RefCount: 1
    m_Data: {fileID: 11400000, guid: e752e5f9fece16a449224dd001c63792, type: 2}
  - m_RefCount: 1
    m_Data: {fileID: 11400000, guid: 3c5546ac33073cd4a886b317216bb465, type: 2}
  - m_RefCount: 1
    m_Data: {fileID: 11400000, guid: aef73575527686041b8cde47efbea95a, type: 2}
  - m_RefCount: 1
    m_Data: {fileID: 11400000, guid: a5c9d096578b6dd43810ffbd4cd46047, type: 2}
  - m_RefCount: 1
    m_Data: {fileID: 11400000, guid: 5436e711cbc2ea440a62f7c3327ec391, type: 2}
  - m_RefCount: 1
    m_Data: {fileID: 11400000, guid: c286bebe83b636d42a34adf0277ed9ab, type: 2}
  - m_RefCount: 1
    m_Data: {fileID: 11400000, guid: 6eb61dc796640c145b3f8b34ff0ac8e3, type: 2}
  - m_RefCount: 1
    m_Data: {fileID: 11400000, guid: 379bc6bc2a72e4a48af495a5f46a39e0, type: 2}
  - m_RefCount: 1
    m_Data: {fileID: 11400000, guid: cdb057c8869159d44a0e95eb34001d96, type: 2}
  - m_RefCount: 1
    m_Data: {fileID: 11400000, guid: 5f7578278b4e6b844a8eeab6f9433a83, type: 2}
  - m_RefCount: 1
    m_Data: {fileID: 11400000, guid: 620aa14e68185d642bdc0310c21ae2a8, type: 2}
  - m_RefCount: 1
    m_Data: {fileID: 11400000, guid: 111f0770ee3f7c24ba90fb3190d54124, type: 2}
  - m_RefCount: 1
    m_Data: {fileID: 11400000, guid: 29bc758593374f44eae2c0c4600f33c8, type: 2}
  - m_RefCount: 1
    m_Data: {fileID: 11400000, guid: a2d9fdea96d0777498d7b747a88a4343, type: 2}
  - m_RefCount: 1
    m_Data: {fileID: 11400000, guid: 905c94dc8a262c14596a02a91c94003f, type: 2}
  - m_RefCount: 1
    m_Data: {fileID: 11400000, guid: fe61dbf0df84269429c461514015ed6b, type: 2}
  - m_RefCount: 1
    m_Data: {fileID: 11400000, guid: 48853b1914bfa484088220abf4ce7ed1, type: 2}
  - m_RefCount: 1
    m_Data: {fileID: 11400000, guid: 5013aafb7a0958e48b44aa7ceb0f2416, type: 2}
  - m_RefCount: 1
    m_Data: {fileID: 11400000, guid: 61c9de13f4efea4488a81cdd8655689e, type: 2}
  - m_RefCount: 1
    m_Data: {fileID: 11400000, guid: 187ad532339a05d4189d06d37b31f60b, type: 2}
  - m_RefCount: 1
    m_Data: {fileID: 11400000, guid: 09f21757d9562f1409d8647481dfca62, type: 2}
  - m_RefCount: 1
    m_Data: {fileID: 11400000, guid: f6f842e044ed711468f2f9785821d0af, type: 2}
  - m_RefCount: 1
    m_Data: {fileID: 11400000, guid: 6a2e4922bab62c848becb13fdbe6ab72, type: 2}
  - m_RefCount: 1
    m_Data: {fileID: 11400000, guid: 034ca56b2550e984b94fdcdc0332bf3b, type: 2}
  - m_RefCount: 1
    m_Data: {fileID: 11400000, guid: c84f012f048b4ee4a9ae1a4b87b58a91, type: 2}
  - m_RefCount: 1
    m_Data: {fileID: 11400000, guid: 65a247efa40d865488170e279e52c12d, type: 2}
  - m_RefCount: 1
    m_Data: {fileID: 11400000, guid: b4a95bdea7bd5334f9c6ac39ff327c7a, type: 2}
  - m_RefCount: 1
    m_Data: {fileID: 11400000, guid: 11ad635d0533e8b4398f0283f08776f2, type: 2}
  - m_RefCount: 1
    m_Data: {fileID: 11400000, guid: 792b94321a293ef458888013007aea64, type: 2}
  - m_RefCount: 1
    m_Data: {fileID: 11400000, guid: 4afb60b3fa917324da6a42e65c153815, type: 2}
  - m_RefCount: 1
    m_Data: {fileID: 11400000, guid: 5f3bcdb0d35df3b40ac59114c8c2b4eb, type: 2}
  - m_RefCount: 1
    m_Data: {fileID: 11400000, guid: 23100a873c7812c4a9073df5adf878e5, type: 2}
  - m_RefCount: 1
    m_Data: {fileID: 11400000, guid: b6aef6249a851e64392e736ac7a495c8, type: 2}
  - m_RefCount: 1
    m_Data: {fileID: 11400000, guid: 60f3f5ec2ede3094f91aef4a8518a5a3, type: 2}
  - m_RefCount: 1
    m_Data: {fileID: 11400000, guid: e30c465d10b182241acec5811b5c1b38, type: 2}
  - m_RefCount: 1
    m_Data: {fileID: 11400000, guid: 082f747fbed66464da215ed63d88ae77, type: 2}
  - m_RefCount: 1
    m_Data: {fileID: 11400000, guid: 3f45aabbfdc560042878622c66296262, type: 2}
  - m_RefCount: 1
    m_Data: {fileID: 11400000, guid: 8401865e84dcea04da1a97f37dd7c889, type: 2}
  - m_RefCount: 1
    m_Data: {fileID: 11400000, guid: b07d3b7f44a7c7143a15a3c786462cc8, type: 2}
  - m_RefCount: 1
    m_Data: {fileID: 11400000, guid: cff6f52cc3f025647a357d09a0ff52d5, type: 2}
  - m_RefCount: 1
    m_Data: {fileID: 11400000, guid: f44558ff6a3a97345bc9f77020a5d3e0, type: 2}
  - m_RefCount: 1
    m_Data: {fileID: 11400000, guid: 0df394a726ab35840ade8b451e461b15, type: 2}
  - m_RefCount: 1
    m_Data: {fileID: 11400000, guid: 7f71b9ee54ab35f498d849c24f85b13f, type: 2}
  - m_RefCount: 1
    m_Data: {fileID: 11400000, guid: 36c46a9d1fe625c47aa666d5796940ce, type: 2}
  - m_RefCount: 1
    m_Data: {fileID: 11400000, guid: abe1fa98be591284f97a0e38467c63e8, type: 2}
  - m_RefCount: 1
    m_Data: {fileID: 11400000, guid: 4d74c03add30feb46a8898e5011fa5b1, type: 2}
  - m_RefCount: 1
    m_Data: {fileID: 11400000, guid: f376b0ab16f97fb48a5b6a8e3f5c0ad3, type: 2}
  - m_RefCount: 1
    m_Data: {fileID: 11400000, guid: 1308907a07240fd4ca4bbb52ca4b84b0, type: 2}
  - m_RefCount: 1
    m_Data: {fileID: 11400000, guid: 5034c437776d6d640a7b3c3479356d03, type: 2}
  - m_RefCount: 1
    m_Data: {fileID: 11400000, guid: f73ed20d14b78fd4fa8e5a8d27829596, type: 2}
  - m_RefCount: 1
    m_Data: {fileID: 11400000, guid: 645466c90d5242e4d87b44cf6386d3ef, type: 2}
  - m_RefCount: 1
    m_Data: {fileID: 11400000, guid: 4905d4cfbf14b614eb7a8fbfe60f8fd9, type: 2}
  - m_RefCount: 1
    m_Data: {fileID: 11400000, guid: f178dee665c067947a76e9bafc04e398, type: 2}
  - m_RefCount: 1
    m_Data: {fileID: 11400000, guid: f303d0c699c6f834abca8deafde408d8, type: 2}
  - m_RefCount: 1
    m_Data: {fileID: 11400000, guid: 5314a299aa55d394e85909ebe1487740, type: 2}
  - m_RefCount: 1
    m_Data: {fileID: 11400000, guid: c7b11628bb50efb4bb88100d6293ab6b, type: 2}
  - m_RefCount: 1
    m_Data: {fileID: 11400000, guid: acf77c174cbd26e44a325119ef43ead7, type: 2}
  - m_RefCount: 1
    m_Data: {fileID: 11400000, guid: 4d3c29f3c8c767a4fbb95d1761e5ca7b, type: 2}
  - m_RefCount: 1
    m_Data: {fileID: 11400000, guid: f40f6d85bcea3994da436807463f406a, type: 2}
  - m_RefCount: 1
    m_Data: {fileID: 11400000, guid: 43a7155b0a258c546a71e569b4ed4e9e, type: 2}
  - m_RefCount: 1
    m_Data: {fileID: 11400000, guid: 80ff7f58ee9322f439baae2a4a7a5fd9, type: 2}
  - m_RefCount: 1
    m_Data: {fileID: 11400000, guid: b9553dd774557084bb9cbf22309e2030, type: 2}
  - m_RefCount: 1
    m_Data: {fileID: 11400000, guid: 8b3acad1905bd80429c1555f1036e706, type: 2}
  - m_RefCount: 1
    m_Data: {fileID: 11400000, guid: 39ea8b53206359241b7676bbcc5dc784, type: 2}
  - m_RefCount: 1
    m_Data: {fileID: 11400000, guid: b35dba25dfc4aae4caa377389110c449, type: 2}
  - m_RefCount: 1
    m_Data: {fileID: 11400000, guid: 70ac9edadfd14b54ba4be1271b7f57c9, type: 2}
  - m_RefCount: 1
    m_Data: {fileID: 11400000, guid: 32075af9e4d3ff04c8bd7f78372523a9, type: 2}
  - m_RefCount: 1
    m_Data: {fileID: 11400000, guid: 2ea0631505de73c4486c04ccf2d55934, type: 2}
  - m_RefCount: 1
    m_Data: {fileID: 11400000, guid: 3b9d838d739b1e1409da68068415630d, type: 2}
  - m_RefCount: 1
    m_Data: {fileID: 11400000, guid: 46d1000081fcfdd4488fd4abac036e31, type: 2}
  - m_RefCount: 1
    m_Data: {fileID: 11400000, guid: eda85f05198cd9f48b49683072753a96, type: 2}
  - m_RefCount: 1
    m_Data: {fileID: 11400000, guid: 20e37bcb1a4460740874da433494daa1, type: 2}
  - m_RefCount: 1
    m_Data: {fileID: 11400000, guid: 9b089cf429e5e6e428923c3f8788e943, type: 2}
  - m_RefCount: 1
    m_Data: {fileID: 11400000, guid: d305e489823a2e74888720a217d0571d, type: 2}
  - m_RefCount: 1
    m_Data: {fileID: 11400000, guid: 13cced24a5e8d5c48be0cf24b5897bb8, type: 2}
  - m_RefCount: 1
    m_Data: {fileID: 11400000, guid: 66144512c7f7fc9419f3a597b53adace, type: 2}
  - m_RefCount: 1
    m_Data: {fileID: 11400000, guid: 535c1a46f775bd943894d8b7aa720cd4, type: 2}
  - m_RefCount: 1
    m_Data: {fileID: 11400000, guid: 26751a0a96964a648aa318da55c650b5, type: 2}
  - m_RefCount: 1
    m_Data: {fileID: 11400000, guid: 00c4d07a4dfb56a4aad2deac845facf8, type: 2}
  - m_RefCount: 1
    m_Data: {fileID: 11400000, guid: f1ac1b8fa0b02234f9cb21c0bf8f77d2, type: 2}
  - m_RefCount: 1
    m_Data: {fileID: 11400000, guid: 04aa015fc44e7ab45b800ffb3d251724, type: 2}
  - m_RefCount: 1
    m_Data: {fileID: 11400000, guid: e593fe2b8bdcfeb4783aecc8d2301ca7, type: 2}
  - m_RefCount: 1
    m_Data: {fileID: 11400000, guid: 3294bad576cdf1e4fb475ebb7fa3344c, type: 2}
  - m_RefCount: 1
    m_Data: {fileID: 11400000, guid: a8b3da17a47ffd446937c04e81de1d6f, type: 2}
  - m_RefCount: 1
    m_Data: {fileID: 11400000, guid: 620aa067a2c594541842070e11539c1e, type: 2}
  - m_RefCount: 1
    m_Data: {fileID: 11400000, guid: c974febdaf3e5c94f8e48dbf3863ecbe, type: 2}
  - m_RefCount: 1
    m_Data: {fileID: 11400000, guid: 60bc8b24c908b7d4fa0ee97335b479bc, type: 2}
  - m_RefCount: 1
    m_Data: {fileID: 11400000, guid: 51e0c4876bee4624db1c9144a2c66ea4, type: 2}
  - m_RefCount: 1
    m_Data: {fileID: 11400000, guid: efbc863335ba4054e9083f24d941d229, type: 2}
  - m_RefCount: 1
    m_Data: {fileID: 11400000, guid: a34df0081d7d1db4dbc13a30d73cbe5b, type: 2}
  - m_RefCount: 1
    m_Data: {fileID: 11400000, guid: ab5a0663364b9d7409e572c622115ca9, type: 2}
  - m_RefCount: 1
    m_Data: {fileID: 11400000, guid: 1efe1ade1493f754c8678f4dc72fd3a0, type: 2}
  - m_RefCount: 1
    m_Data: {fileID: 11400000, guid: b627adef7f58bf945bfe0ba8fb9d9f75, type: 2}
  - m_RefCount: 1
    m_Data: {fileID: 11400000, guid: 1530bbb50f9958f4186554df6d57d28a, type: 2}
  - m_RefCount: 1
    m_Data: {fileID: 11400000, guid: cb1205e533825684abec47f429333816, type: 2}
  - m_RefCount: 1
    m_Data: {fileID: 11400000, guid: 0f836fb41841fd340a00f7a863f6599b, type: 2}
  - m_RefCount: 1
    m_Data: {fileID: 11400000, guid: 5e8350153fd3cfa488bdfa64676ac0ff, type: 2}
  - m_RefCount: 1
    m_Data: {fileID: 11400000, guid: 42431f19e2b87f040be3b8f84a201b40, type: 2}
  - m_RefCount: 1
    m_Data: {fileID: 11400000, guid: 0fd8c44721775c24e8b07e9685f36203, type: 2}
  - m_RefCount: 1
    m_Data: {fileID: 11400000, guid: f4a669fbb52a4404598e39ef02653963, type: 2}
  - m_RefCount: 1
    m_Data: {fileID: 11400000, guid: 1a3923bc7c4911843b6b50af36c7121f, type: 2}
  - m_RefCount: 1
    m_Data: {fileID: 11400000, guid: 5fb307b41607fce4cb8723f4cbc55c90, type: 2}
  - m_RefCount: 1
    m_Data: {fileID: 11400000, guid: 3bcc35d017c842f4091a46d044e016dd, type: 2}
  - m_RefCount: 1
    m_Data: {fileID: 11400000, guid: 5c5416c236f1a894d800860b35bdc603, type: 2}
  - m_RefCount: 1
    m_Data: {fileID: 11400000, guid: 58a428bf0bc8377409e5563499b92114, type: 2}
  - m_RefCount: 1
    m_Data: {fileID: 11400000, guid: 2b1cf766662d37e4292638d9b49ffb74, type: 2}
  - m_RefCount: 1
    m_Data: {fileID: 11400000, guid: 0c75531537517d340a42a1ed7f29549a, type: 2}
  - m_RefCount: 1
    m_Data: {fileID: 11400000, guid: caf8d845a6ac0e943b15389c366c6906, type: 2}
  - m_RefCount: 1
    m_Data: {fileID: 11400000, guid: f7da4a9c96dfa164b83bd949dda76367, type: 2}
  - m_RefCount: 1
    m_Data: {fileID: 11400000, guid: b9a0ba2aa54c6a445bf6f550c191574a, type: 2}
  - m_RefCount: 1
    m_Data: {fileID: 11400000, guid: a7b358d58f018f0498e47be4e6d214c2, type: 2}
  - m_RefCount: 1
    m_Data: {fileID: 11400000, guid: 007fec08f540e684d9f42fe32bbe5b25, type: 2}
  - m_RefCount: 1
    m_Data: {fileID: 11400000, guid: 1cbbfe80aa4f4ec409cdb071db619220, type: 2}
  - m_RefCount: 1
    m_Data: {fileID: 11400000, guid: 8de5f42c8ad471f44b8e77570153fb62, type: 2}
  - m_RefCount: 1
    m_Data: {fileID: 11400000, guid: bcd7653eef524fd498725be5608cc572, type: 2}
  - m_RefCount: 1
    m_Data: {fileID: 11400000, guid: f6b9be7f6f745034cafb6ad90fbbf7ce, type: 2}
  - m_RefCount: 1
    m_Data: {fileID: 11400000, guid: d91d45413a14d624b97178d1a233765c, type: 2}
  - m_RefCount: 1
    m_Data: {fileID: 11400000, guid: 0df35f98219cd3a41b68867d3c407f4b, type: 2}
  - m_RefCount: 1
    m_Data: {fileID: 11400000, guid: 46d3102554128a9498a86dfee6a9d712, type: 2}
  - m_RefCount: 1
    m_Data: {fileID: 11400000, guid: fcf46a4b25f5fd2488c486081cc1bf7d, type: 2}
  - m_RefCount: 1
    m_Data: {fileID: 11400000, guid: 3ef0b287397549845813cf4cbefd5d4a, type: 2}
  - m_RefCount: 1
    m_Data: {fileID: 11400000, guid: 7b92945a5de36764baad25123f3babb3, type: 2}
  - m_RefCount: 1
    m_Data: {fileID: 11400000, guid: eaf7d35e4d4195446a1bf4560959cb92, type: 2}
  - m_RefCount: 1
    m_Data: {fileID: 11400000, guid: 9a0a8bac0ddaea247b47cb12683c2522, type: 2}
  - m_RefCount: 1
    m_Data: {fileID: 11400000, guid: d1422cd60fde0f44894342d551a3a411, type: 2}
  - m_RefCount: 1
    m_Data: {fileID: 11400000, guid: cf279aaa2f53312439da031d61c5ec61, type: 2}
  - m_RefCount: 1
    m_Data: {fileID: 11400000, guid: bd48b25dbc465454d89cae634261bd5d, type: 2}
  - m_RefCount: 1
    m_Data: {fileID: 11400000, guid: 40e57196410c58049b662a491ce56c07, type: 2}
  - m_RefCount: 1
    m_Data: {fileID: 11400000, guid: 2ed95bcd7a6483344896b7eb40f9dccf, type: 2}
  - m_RefCount: 1
    m_Data: {fileID: 11400000, guid: 7debdc6bd9a40264a97fe3b5add33d0d, type: 2}
  - m_RefCount: 1
    m_Data: {fileID: 11400000, guid: 327394d99b9986f42aa3451c46e6e4cf, type: 2}
  m_TileSpriteArray:
  - m_RefCount: 1
    m_Data: {fileID: -311932925, guid: 9e235821aa4b9fa4c8c044e376b29613, type: 3}
  - m_RefCount: 1
    m_Data: {fileID: 1362161631, guid: 5c315aa56710ad648bfb2462eec20996, type: 3}
  - m_RefCount: 1
    m_Data: {fileID: 977653592, guid: 5c315aa56710ad648bfb2462eec20996, type: 3}
  - m_RefCount: 1
    m_Data: {fileID: 227275284, guid: 5c315aa56710ad648bfb2462eec20996, type: 3}
  - m_RefCount: 1
    m_Data: {fileID: -184377183, guid: 5c315aa56710ad648bfb2462eec20996, type: 3}
  - m_RefCount: 1
    m_Data: {fileID: -1869128748, guid: 5c315aa56710ad648bfb2462eec20996, type: 3}
  - m_RefCount: 1
    m_Data: {fileID: -796191923, guid: 5c315aa56710ad648bfb2462eec20996, type: 3}
  - m_RefCount: 1
    m_Data: {fileID: -1669563909, guid: 5c315aa56710ad648bfb2462eec20996, type: 3}
  - m_RefCount: 1
    m_Data: {fileID: 1915068852, guid: 5c315aa56710ad648bfb2462eec20996, type: 3}
  - m_RefCount: 1
    m_Data: {fileID: 972808191, guid: 5c315aa56710ad648bfb2462eec20996, type: 3}
  - m_RefCount: 1
    m_Data: {fileID: -141265817, guid: 5c315aa56710ad648bfb2462eec20996, type: 3}
  - m_RefCount: 1
    m_Data: {fileID: 784415360, guid: 5c315aa56710ad648bfb2462eec20996, type: 3}
  - m_RefCount: 1
    m_Data: {fileID: 343304801, guid: 5c315aa56710ad648bfb2462eec20996, type: 3}
  - m_RefCount: 1
    m_Data: {fileID: -1829401933, guid: 5c315aa56710ad648bfb2462eec20996, type: 3}
  - m_RefCount: 1
    m_Data: {fileID: 596295469, guid: 5c315aa56710ad648bfb2462eec20996, type: 3}
  - m_RefCount: 1
    m_Data: {fileID: 1536611088, guid: 5c315aa56710ad648bfb2462eec20996, type: 3}
  - m_RefCount: 1
    m_Data: {fileID: -154140236, guid: 5c315aa56710ad648bfb2462eec20996, type: 3}
  - m_RefCount: 1
    m_Data: {fileID: 1414045797, guid: 5c315aa56710ad648bfb2462eec20996, type: 3}
  - m_RefCount: 1
    m_Data: {fileID: 1445661865, guid: 5c315aa56710ad648bfb2462eec20996, type: 3}
  - m_RefCount: 1
    m_Data: {fileID: 1304933002, guid: 5c315aa56710ad648bfb2462eec20996, type: 3}
  - m_RefCount: 1
    m_Data: {fileID: 266338462, guid: 5c315aa56710ad648bfb2462eec20996, type: 3}
  - m_RefCount: 1
    m_Data: {fileID: -1989840859, guid: 5c315aa56710ad648bfb2462eec20996, type: 3}
  - m_RefCount: 1
    m_Data: {fileID: -863365350, guid: 5c315aa56710ad648bfb2462eec20996, type: 3}
  - m_RefCount: 1
    m_Data: {fileID: 511083816, guid: 5c315aa56710ad648bfb2462eec20996, type: 3}
  - m_RefCount: 1
    m_Data: {fileID: -365011836, guid: 5c315aa56710ad648bfb2462eec20996, type: 3}
  - m_RefCount: 1
    m_Data: {fileID: 974386907, guid: 5c315aa56710ad648bfb2462eec20996, type: 3}
  - m_RefCount: 1
    m_Data: {fileID: 1824709827, guid: 5c315aa56710ad648bfb2462eec20996, type: 3}
  - m_RefCount: 1
    m_Data: {fileID: -1941409113, guid: 5c315aa56710ad648bfb2462eec20996, type: 3}
  - m_RefCount: 1
    m_Data: {fileID: 435958617, guid: 5c315aa56710ad648bfb2462eec20996, type: 3}
  - m_RefCount: 1
    m_Data: {fileID: 1732158776, guid: 5c315aa56710ad648bfb2462eec20996, type: 3}
  - m_RefCount: 1
    m_Data: {fileID: 779713700, guid: 5c315aa56710ad648bfb2462eec20996, type: 3}
  - m_RefCount: 1
    m_Data: {fileID: -330835820, guid: 5c315aa56710ad648bfb2462eec20996, type: 3}
  - m_RefCount: 1
    m_Data: {fileID: -508300478, guid: 5c315aa56710ad648bfb2462eec20996, type: 3}
  - m_RefCount: 1
    m_Data: {fileID: -696022593, guid: 5c315aa56710ad648bfb2462eec20996, type: 3}
  - m_RefCount: 1
    m_Data: {fileID: 820929131, guid: 5c315aa56710ad648bfb2462eec20996, type: 3}
  - m_RefCount: 1
    m_Data: {fileID: -1820263219, guid: 5c315aa56710ad648bfb2462eec20996, type: 3}
  - m_RefCount: 1
    m_Data: {fileID: 523569701, guid: 5c315aa56710ad648bfb2462eec20996, type: 3}
  - m_RefCount: 1
    m_Data: {fileID: -2051945614, guid: 5c315aa56710ad648bfb2462eec20996, type: 3}
  - m_RefCount: 1
    m_Data: {fileID: -1274961176, guid: 5c315aa56710ad648bfb2462eec20996, type: 3}
  - m_RefCount: 1
    m_Data: {fileID: -1148824294, guid: 5c315aa56710ad648bfb2462eec20996, type: 3}
  - m_RefCount: 1
    m_Data: {fileID: -853255909, guid: 5c315aa56710ad648bfb2462eec20996, type: 3}
  - m_RefCount: 1
    m_Data: {fileID: 1664380142, guid: 5c315aa56710ad648bfb2462eec20996, type: 3}
  - m_RefCount: 1
    m_Data: {fileID: -599055643, guid: 5c315aa56710ad648bfb2462eec20996, type: 3}
  - m_RefCount: 1
    m_Data: {fileID: 2022660928, guid: 5c315aa56710ad648bfb2462eec20996, type: 3}
  - m_RefCount: 1
    m_Data: {fileID: -1799167897, guid: 5c315aa56710ad648bfb2462eec20996, type: 3}
  - m_RefCount: 1
    m_Data: {fileID: 701421648, guid: 5c315aa56710ad648bfb2462eec20996, type: 3}
  - m_RefCount: 1
    m_Data: {fileID: 1195176508, guid: 5c315aa56710ad648bfb2462eec20996, type: 3}
  - m_RefCount: 1
    m_Data: {fileID: 504122887, guid: 5c315aa56710ad648bfb2462eec20996, type: 3}
  - m_RefCount: 1
    m_Data: {fileID: -49026889, guid: 5c315aa56710ad648bfb2462eec20996, type: 3}
  - m_RefCount: 1
    m_Data: {fileID: -1339902519, guid: 5c315aa56710ad648bfb2462eec20996, type: 3}
  - m_RefCount: 1
    m_Data: {fileID: -1583359514, guid: 5c315aa56710ad648bfb2462eec20996, type: 3}
  - m_RefCount: 1
    m_Data: {fileID: -931012910, guid: 5c315aa56710ad648bfb2462eec20996, type: 3}
  - m_RefCount: 1
    m_Data: {fileID: 1193714686, guid: 5c315aa56710ad648bfb2462eec20996, type: 3}
  - m_RefCount: 1
    m_Data: {fileID: -856313574, guid: 5c315aa56710ad648bfb2462eec20996, type: 3}
  - m_RefCount: 1
    m_Data: {fileID: -1524334958, guid: 5c315aa56710ad648bfb2462eec20996, type: 3}
  - m_RefCount: 1
    m_Data: {fileID: 1726334052, guid: 5c315aa56710ad648bfb2462eec20996, type: 3}
  - m_RefCount: 1
    m_Data: {fileID: -1013077353, guid: 5c315aa56710ad648bfb2462eec20996, type: 3}
  - m_RefCount: 1
    m_Data: {fileID: -1541317826, guid: 5c315aa56710ad648bfb2462eec20996, type: 3}
  - m_RefCount: 1
    m_Data: {fileID: 369099598, guid: 5c315aa56710ad648bfb2462eec20996, type: 3}
  - m_RefCount: 1
    m_Data: {fileID: 701133129, guid: 5c315aa56710ad648bfb2462eec20996, type: 3}
  - m_RefCount: 1
    m_Data: {fileID: 76904840, guid: 5c315aa56710ad648bfb2462eec20996, type: 3}
  - m_RefCount: 1
    m_Data: {fileID: -487800412, guid: 5c315aa56710ad648bfb2462eec20996, type: 3}
  - m_RefCount: 1
    m_Data: {fileID: -729015199, guid: 5c315aa56710ad648bfb2462eec20996, type: 3}
  - m_RefCount: 1
    m_Data: {fileID: 1951009371, guid: 5c315aa56710ad648bfb2462eec20996, type: 3}
  - m_RefCount: 1
    m_Data: {fileID: 558161624, guid: 5c315aa56710ad648bfb2462eec20996, type: 3}
  - m_RefCount: 1
    m_Data: {fileID: 607559657, guid: 5c315aa56710ad648bfb2462eec20996, type: 3}
  - m_RefCount: 1
    m_Data: {fileID: 1191847791, guid: 5c315aa56710ad648bfb2462eec20996, type: 3}
  - m_RefCount: 1
    m_Data: {fileID: -891583986, guid: 5c315aa56710ad648bfb2462eec20996, type: 3}
  - m_RefCount: 1
    m_Data: {fileID: -1210172219, guid: 5c315aa56710ad648bfb2462eec20996, type: 3}
  - m_RefCount: 1
    m_Data: {fileID: 801598048, guid: 5c315aa56710ad648bfb2462eec20996, type: 3}
  - m_RefCount: 1
    m_Data: {fileID: 1233739992, guid: 5c315aa56710ad648bfb2462eec20996, type: 3}
  - m_RefCount: 1
    m_Data: {fileID: 1382110256, guid: 5c315aa56710ad648bfb2462eec20996, type: 3}
  - m_RefCount: 1
    m_Data: {fileID: 1463853592, guid: 5c315aa56710ad648bfb2462eec20996, type: 3}
  - m_RefCount: 1
    m_Data: {fileID: 1228755579, guid: 5c315aa56710ad648bfb2462eec20996, type: 3}
  - m_RefCount: 1
    m_Data: {fileID: -1053338567, guid: 5c315aa56710ad648bfb2462eec20996, type: 3}
  - m_RefCount: 1
    m_Data: {fileID: -1836921095, guid: 5c315aa56710ad648bfb2462eec20996, type: 3}
  - m_RefCount: 1
    m_Data: {fileID: 1853699549, guid: 5c315aa56710ad648bfb2462eec20996, type: 3}
  - m_RefCount: 1
    m_Data: {fileID: -528484036, guid: 5c315aa56710ad648bfb2462eec20996, type: 3}
  - m_RefCount: 1
    m_Data: {fileID: -394204995, guid: 5c315aa56710ad648bfb2462eec20996, type: 3}
  - m_RefCount: 1
    m_Data: {fileID: -1619859973, guid: 5c315aa56710ad648bfb2462eec20996, type: 3}
  - m_RefCount: 1
    m_Data: {fileID: 351105549, guid: 5c315aa56710ad648bfb2462eec20996, type: 3}
  - m_RefCount: 1
    m_Data: {fileID: 511513556, guid: 5c315aa56710ad648bfb2462eec20996, type: 3}
  - m_RefCount: 1
    m_Data: {fileID: 1780398248, guid: 5c315aa56710ad648bfb2462eec20996, type: 3}
  - m_RefCount: 1
    m_Data: {fileID: -107205477, guid: 5c315aa56710ad648bfb2462eec20996, type: 3}
  - m_RefCount: 1
    m_Data: {fileID: -1925205880, guid: 5c315aa56710ad648bfb2462eec20996, type: 3}
  - m_RefCount: 1
    m_Data: {fileID: -15460278, guid: 5c315aa56710ad648bfb2462eec20996, type: 3}
  - m_RefCount: 1
    m_Data: {fileID: 1239091379, guid: 5c315aa56710ad648bfb2462eec20996, type: 3}
  - m_RefCount: 1
    m_Data: {fileID: 235068539, guid: 5c315aa56710ad648bfb2462eec20996, type: 3}
  - m_RefCount: 1
    m_Data: {fileID: 1755091488, guid: 5c315aa56710ad648bfb2462eec20996, type: 3}
  - m_RefCount: 1
    m_Data: {fileID: -1100831497, guid: 5c315aa56710ad648bfb2462eec20996, type: 3}
  - m_RefCount: 1
    m_Data: {fileID: -163174782, guid: 5c315aa56710ad648bfb2462eec20996, type: 3}
  - m_RefCount: 1
    m_Data: {fileID: -2087635926, guid: 5c315aa56710ad648bfb2462eec20996, type: 3}
  - m_RefCount: 1
    m_Data: {fileID: -2027814016, guid: 5c315aa56710ad648bfb2462eec20996, type: 3}
  - m_RefCount: 1
    m_Data: {fileID: 2077265365, guid: 5c315aa56710ad648bfb2462eec20996, type: 3}
  - m_RefCount: 1
    m_Data: {fileID: 956762691, guid: 5c315aa56710ad648bfb2462eec20996, type: 3}
  - m_RefCount: 1
    m_Data: {fileID: -645259164, guid: 5c315aa56710ad648bfb2462eec20996, type: 3}
  - m_RefCount: 1
    m_Data: {fileID: -253428244, guid: 5c315aa56710ad648bfb2462eec20996, type: 3}
  - m_RefCount: 1
    m_Data: {fileID: -500121133, guid: 5c315aa56710ad648bfb2462eec20996, type: 3}
  - m_RefCount: 1
    m_Data: {fileID: 1471431650, guid: 5c315aa56710ad648bfb2462eec20996, type: 3}
  - m_RefCount: 1
    m_Data: {fileID: -69232295, guid: 5c315aa56710ad648bfb2462eec20996, type: 3}
  - m_RefCount: 1
    m_Data: {fileID: -238762617, guid: 5c315aa56710ad648bfb2462eec20996, type: 3}
  - m_RefCount: 1
    m_Data: {fileID: 1090523744, guid: 5c315aa56710ad648bfb2462eec20996, type: 3}
  - m_RefCount: 1
    m_Data: {fileID: -1888322939, guid: 5c315aa56710ad648bfb2462eec20996, type: 3}
  - m_RefCount: 1
    m_Data: {fileID: -979969325, guid: 5c315aa56710ad648bfb2462eec20996, type: 3}
  - m_RefCount: 1
    m_Data: {fileID: -1876309935, guid: 5c315aa56710ad648bfb2462eec20996, type: 3}
  - m_RefCount: 1
    m_Data: {fileID: -1222452063, guid: 5c315aa56710ad648bfb2462eec20996, type: 3}
  - m_RefCount: 1
    m_Data: {fileID: 977186993, guid: 5c315aa56710ad648bfb2462eec20996, type: 3}
  - m_RefCount: 1
    m_Data: {fileID: -1473916002, guid: 5c315aa56710ad648bfb2462eec20996, type: 3}
  - m_RefCount: 1
    m_Data: {fileID: 2080311487, guid: 5c315aa56710ad648bfb2462eec20996, type: 3}
  - m_RefCount: 1
    m_Data: {fileID: -583752383, guid: 5c315aa56710ad648bfb2462eec20996, type: 3}
  - m_RefCount: 1
    m_Data: {fileID: -1179809815, guid: 5c315aa56710ad648bfb2462eec20996, type: 3}
  - m_RefCount: 1
    m_Data: {fileID: 407085949, guid: 5c315aa56710ad648bfb2462eec20996, type: 3}
  - m_RefCount: 1
    m_Data: {fileID: 229519065, guid: 5c315aa56710ad648bfb2462eec20996, type: 3}
  - m_RefCount: 1
    m_Data: {fileID: -1214051687, guid: 5c315aa56710ad648bfb2462eec20996, type: 3}
  - m_RefCount: 1
    m_Data: {fileID: -908026071, guid: 5c315aa56710ad648bfb2462eec20996, type: 3}
  - m_RefCount: 1
    m_Data: {fileID: 542356523, guid: 5c315aa56710ad648bfb2462eec20996, type: 3}
  - m_RefCount: 1
    m_Data: {fileID: -1168800520, guid: 5c315aa56710ad648bfb2462eec20996, type: 3}
  - m_RefCount: 1
    m_Data: {fileID: -175185194, guid: 5c315aa56710ad648bfb2462eec20996, type: 3}
  - m_RefCount: 1
    m_Data: {fileID: -531959514, guid: 5c315aa56710ad648bfb2462eec20996, type: 3}
  - m_RefCount: 1
    m_Data: {fileID: 79311650, guid: 5c315aa56710ad648bfb2462eec20996, type: 3}
  - m_RefCount: 1
    m_Data: {fileID: -1610728535, guid: 5c315aa56710ad648bfb2462eec20996, type: 3}
  - m_RefCount: 1
    m_Data: {fileID: 874533643, guid: 5c315aa56710ad648bfb2462eec20996, type: 3}
  - m_RefCount: 1
    m_Data: {fileID: 423385808, guid: 5c315aa56710ad648bfb2462eec20996, type: 3}
  - m_RefCount: 1
    m_Data: {fileID: -1863846686, guid: 5c315aa56710ad648bfb2462eec20996, type: 3}
  - m_RefCount: 1
    m_Data: {fileID: -1530443888, guid: 5c315aa56710ad648bfb2462eec20996, type: 3}
  - m_RefCount: 1
    m_Data: {fileID: 560492909, guid: 5c315aa56710ad648bfb2462eec20996, type: 3}
  - m_RefCount: 1
    m_Data: {fileID: 465333015, guid: 5c315aa56710ad648bfb2462eec20996, type: 3}
  - m_RefCount: 1
    m_Data: {fileID: -331851647, guid: 5c315aa56710ad648bfb2462eec20996, type: 3}
  - m_RefCount: 1
    m_Data: {fileID: 1253826073, guid: 5c315aa56710ad648bfb2462eec20996, type: 3}
  - m_RefCount: 1
    m_Data: {fileID: 403479868, guid: 5c315aa56710ad648bfb2462eec20996, type: 3}
  - m_RefCount: 1
    m_Data: {fileID: 460034818, guid: 5c315aa56710ad648bfb2462eec20996, type: 3}
  - m_RefCount: 1
    m_Data: {fileID: 2134930540, guid: 5c315aa56710ad648bfb2462eec20996, type: 3}
  - m_RefCount: 1
    m_Data: {fileID: -394680165, guid: 5c315aa56710ad648bfb2462eec20996, type: 3}
  - m_RefCount: 1
    m_Data: {fileID: 1529941563, guid: 5c315aa56710ad648bfb2462eec20996, type: 3}
  - m_RefCount: 1
    m_Data: {fileID: 1235973390, guid: 5c315aa56710ad648bfb2462eec20996, type: 3}
  - m_RefCount: 1
    m_Data: {fileID: -82054134, guid: 5c315aa56710ad648bfb2462eec20996, type: 3}
  - m_RefCount: 1
    m_Data: {fileID: -1736514398, guid: 5c315aa56710ad648bfb2462eec20996, type: 3}
  - m_RefCount: 1
    m_Data: {fileID: -1920909561, guid: 5c315aa56710ad648bfb2462eec20996, type: 3}
  - m_RefCount: 1
    m_Data: {fileID: 330682624, guid: 5c315aa56710ad648bfb2462eec20996, type: 3}
  - m_RefCount: 1
    m_Data: {fileID: -1042923299, guid: 5c315aa56710ad648bfb2462eec20996, type: 3}
  - m_RefCount: 1
    m_Data: {fileID: -1731421587, guid: 5c315aa56710ad648bfb2462eec20996, type: 3}
  - m_RefCount: 1
    m_Data: {fileID: -850295655, guid: 5c315aa56710ad648bfb2462eec20996, type: 3}
  - m_RefCount: 1
    m_Data: {fileID: 508985062, guid: 5c315aa56710ad648bfb2462eec20996, type: 3}
  - m_RefCount: 1
    m_Data: {fileID: 9738924, guid: 5c315aa56710ad648bfb2462eec20996, type: 3}
  - m_RefCount: 1
    m_Data: {fileID: -957540295, guid: 5c315aa56710ad648bfb2462eec20996, type: 3}
  - m_RefCount: 1
    m_Data: {fileID: -1773914235, guid: 9e235821aa4b9fa4c8c044e376b29613, type: 3}
  - m_RefCount: 1
    m_Data: {fileID: 325368111, guid: 9e235821aa4b9fa4c8c044e376b29613, type: 3}
  - m_RefCount: 1
    m_Data: {fileID: 1098017302, guid: 9e235821aa4b9fa4c8c044e376b29613, type: 3}
  m_TileMatrixArray:
  - m_RefCount: 149
    m_Data:
      e00: 1
      e01: 0
      e02: 0
      e03: 0
      e10: 0
      e11: 1
      e12: 0
      e13: 0
      e20: 0
      e21: 0
      e22: 1
      e23: 0
      e30: 0
      e31: 0
      e32: 0
      e33: 1
  m_TileColorArray:
  - m_RefCount: 149
    m_Data: {r: 1, g: 1, b: 1, a: 1}
  m_TileObjectToInstantiateArray: []
  m_AnimationFrameRate: 1
  m_Color: {r: 1, g: 1, b: 1, a: 1}
  m_Origin: {x: -5, y: -10, z: 0}
  m_Size: {x: 14, y: 14, z: 1}
  m_TileAnchor: {x: 0.5, y: 0.5, z: 0}
  m_TileOrientation: 0
  m_TileOrientationMatrix:
    e00: 1
    e01: 0
    e02: 0
    e03: 0
    e10: 0
    e11: 1
    e12: 0
    e13: 0
    e20: 0
    e21: 0
    e22: 1
    e23: 0
    e30: 0
    e31: 0
    e32: 0
    e33: 1
--- !u!483693784 &649606624066536833
TilemapRenderer:
  m_ObjectHideFlags: 0
  m_CorrespondingSourceObject: {fileID: 0}
  m_PrefabInstance: {fileID: 0}
  m_PrefabAsset: {fileID: 0}
  m_GameObject: {fileID: 2245811403780637096}
  m_Enabled: 1
  m_CastShadows: 0
  m_ReceiveShadows: 0
  m_DynamicOccludee: 0
  m_StaticShadowCaster: 0
  m_MotionVectors: 1
  m_LightProbeUsage: 0
  m_ReflectionProbeUsage: 0
  m_RayTracingMode: 0
  m_RayTraceProcedural: 0
  m_RenderingLayerMask: 1
  m_RendererPriority: 0
  m_Materials:
  - {fileID: 2100000, guid: a97c105638bdf8b4a8650670310a4cd3, type: 2}
  m_StaticBatchInfo:
    firstSubMesh: 0
    subMeshCount: 0
  m_StaticBatchRoot: {fileID: 0}
  m_ProbeAnchor: {fileID: 0}
  m_LightProbeVolumeOverride: {fileID: 0}
  m_ScaleInLightmap: 1
  m_ReceiveGI: 1
  m_PreserveUVs: 0
  m_IgnoreNormalsForChartDetection: 0
  m_ImportantGI: 0
  m_StitchLightmapSeams: 1
  m_SelectedEditorRenderState: 0
  m_MinimumChartSize: 4
  m_AutoUVMaxDistance: 0.5
  m_AutoUVMaxAngle: 89
  m_LightmapParameters: {fileID: 0}
  m_SortingLayerID: 0
  m_SortingLayer: 0
  m_SortingOrder: 0
  m_ChunkSize: {x: 32, y: 32, z: 32}
  m_ChunkCullingBounds: {x: 0, y: 0, z: 0}
  m_MaxChunkCount: 16
  m_MaxFrameAge: 16
  m_SortOrder: 0
  m_Mode: 0
  m_DetectChunkCullingBounds: 0
  m_MaskInteraction: 0
--- !u!114 &1119863852670456796
MonoBehaviour:
  m_ObjectHideFlags: 0
  m_CorrespondingSourceObject: {fileID: 0}
  m_PrefabInstance: {fileID: 0}
  m_PrefabAsset: {fileID: 0}
  m_GameObject: {fileID: 0}
  m_Enabled: 1
  m_EditorHideFlags: 0
  m_Script: {fileID: 12395, guid: 0000000000000000e000000000000000, type: 0}
  m_Name: Palette Settings
  m_EditorClassIdentifier: 
  cellSizing: 0
  m_TransparencySortMode: 0
  m_TransparencySortAxis: {x: 0, y: 0, z: 1}
